…
This file contains just a single parameter, `dataset`, pointing to the URL of the dataset to read.  Our interpreter has a very simple purpose - read in the file and send the output to the console.  Our interpreter looks as follows:

```r
inp <- jsonlite::fromJSON("myfile.json", simplifyVector = FALSE)
data <- readr::read_csv(inp$dataset)
print(data)
```

The output is:

```
# A tibble: 1,237 × 24
   match_id   team1     team2 score_team1 score_team2 wickets_team1 wickets_team2 team1_away_or_home
   <chr>      <chr>     <chr>       <dbl>       <dbl>         <dbl>         <dbl> <chr>             
 1 ODI # 1028 West Ind… Aust…         172         173             9             9 away              
 2 ODI # 1029 West Ind… Sri …         194         124            10            10 away              
 3 ODI # 1030 Sri Lanka West…         102         104            10             3 away              
 4 ODI # 1031 West Ind… Aust…         231         217            10            10 away              
 5 ODI # 1032 Australia Sri …         213         214             5             7 home              
 6 ODI # 1033 South Af… Engl…         211         205             8            10 home              
 7 ODI # 1034 South Af… Engl…         262         265             8             5 home              
 8 ODI # 1035 Australia Sri …         266         183             6             9 home              
 9 ODI # 1036 England   Sout…         198         199             8             7 away              
10 ODI # 1037 Sri Lanka West…         202         186            10             9 away              
# ℹ 1,227 more rows
# ℹ 16 more variables: team2_home_away <chr>, winner <chr>, margin <dbl>, margin_type <chr>,
#   time_of_day <chr>, series <chr>, player_of_match <chr>, player_of_match_team <chr>,
#   venue <chr>, toss <chr>, toss_decision <chr>, ball_remaining <chr>, ground <chr>,
#   ground_city <chr>, ground_country <chr>, match_date <chr>
# ℹ Use `print(n = ...)` to see more rows
```

We have one parameter in our json file, `dataset`.  Changing it will change the dataset imported and printed.  Of course, if we had written an R script we could simply change the filename in the script itself or change a variable pointing to the script but using an external instruction file allows us to change the parameter without affecting the script itself.  For example, if we want chocolate ratings instead of cricket statistics we simply change the dataset parameter:

```json
{
  "dataset": "https://raw.githubusercontent.com/rfordatascience/tidytuesday/master/data/2022/2022-01-18/chocolate.csv"
}
```

Using the same interpreter outputs the following:

```
A tibble: 2,530 × 10
     ref company_manufacturer company_location review_date country_of_bean_origin
   <dbl> <chr>                <chr>                  <dbl> <chr>                 
 1  2454 5150                 U.S.A.                  2019 Tanzania              
 2  2458 5150                 U.S.A.                  2019 Dominican Republic    
 3  2454 5150                 U.S.A.                  2019 Madagascar            
 4  2542 5150                 U.S.A.                  2021 Fiji                  
 5  2546 5150                 U.S.A.                  2021 Venezuela             
 6  2546 5150                 U.S.A.                  2021 Uganda                
 7  2542 5150                 U.S.A.                  2021 India                 
 8   797 A. Morin             France                  2012 Bolivia               
 9   797 A. Morin             France                  2012 Peru                  
10  1011 A. Morin             France                  2013 Panama                
# ℹ 2,520 more rows
# ℹ 5 more variables: specific_bean_origin_or_bar_name <chr>, cocoa_percent <chr>,
#   ingredients <chr>, most_memorable_characteristics <chr>, rating <dbl>
# ℹ Use `print(n = ...)` to see more rows
```
…
